{
    "variables": {
      "AWS_ACCESS_KEY_ID": "{{env `AWS_ACCESS_KEY_ID`}}",
      "AWS_SECRET_ACCESS_KEY": "{{env `AWS_SECRET_ACCESS_KEY`}}"
    },
    "builders": [
        {
          "name": "Build1",
          "type": "amazon-ebs",
          "access_key": "{{user `AWS_ACCESS_KEY_ID`}}",
          "secret_key": "{{user `AWS_SECRET_ACCESS_KEY`}}",
          "region": "eu-west-2",
          "force_deregister": "true",
          "force_delete_snapshot": "true",
          "source_ami_filter": {
            "filters": {
              "virtualization-type": "hvm",
              "name": "ubuntu/images/hvm-ssd/ubuntu-focal-20.04-amd64-server-*",
              "root-device-type": "ebs"
            },
            "owners": ["099720109477"],
            "most_recent": true
          },
          "instance_type": "t2.micro",
          "ssh_username": "ubuntu",
          "ami_name": "aws_ubuntu_ami_1"
        },
        {
            "name": "Build2",
            "type": "amazon-ebs",
            "access_key": "{{user `AWS_ACCESS_KEY_ID`}}",
            "secret_key": "{{user `AWS_SECRET_ACCESS_KEY`}}",
            "region": "eu-west-2",
            "force_deregister": "true",
            "force_delete_snapshot": "true",
            "source_ami_filter": {
              "filters": {
                "virtualization-type": "hvm",
                "name": "ubuntu/images/hvm-ssd/ubuntu-focal-20.04-amd64-server-*",
                "root-device-type": "ebs"
              },
              "owners": ["099720109477"],
              "most_recent": true
            },
            "instance_type": "t2.micro",
            "ssh_username": "ubuntu",
            "ami_name": "aws_ubuntu_ami_2"
        }
    ],
    "provisioners": [
      {
        "type": "ansible",
        "playbook_file": "./packer/ansible/wp_playbook.yml",
        "only": ["Build1"]
      },
      {
        "type": "ansible",
        "playbook_file": "./packer/ansible/mysql_playbook.yml",
        "only": ["Build2"]
      }
    ]
}